{
	"id": "825d8a41-e150-4f4a-83ba-328e20b56421",
	"name": "PCMT Mediator Malawi IL",
	"values": [
		{
			"key": "openhim-uri",
			"value": "https://xchange.health.gov.mw/npc",
			"type": "default",
			"enabled": true
		},
		{
			"key": "basic-auth-username",
			"value": "username-here",
			"type": "default",
			"enabled": true
		},
		{
			"key": "basic-auth-password",
			"value": "password-here",
			"type": "default",
			"enabled": true
		}
	],
	"_postman_variable_scope": "environment",
	"_postman_exported_at": "2024-01-31T17:20:56.943Z",
	"_postman_exported_using": "Postman/10.16.9"
}